module modernc.org/golex

go 1.19

require (
	modernc.org/lex v1.1.1
	modernc.org/lexer v1.0.5
)

require (
	golang.org/x/exp v0.0.0-20181106170214-d68db9428509 // indirect
	modernc.org/fileutil v1.2.0 // indirect
)
